{
	"camera": {
		"transform": {
			"from": [0, 1.75, 6],
			"at": [0, 1, 0]
		},
		"resolution": [640, 480],
		"vfov": 45
	},
	"image_samples": 100,
	"background": [0,0,0],
	"materials": [
		{
			"type": "lambertian",
			"name": "white",
			"albedo": [0.6, 0.6, 0.6]
		},
		{
			"type": "metal",
			"name": "chrome",
			"albedo": [0.6, 0.6, 0.6]
		},
		{
			"type": "lambertian",
			"name": "green",
			"albedo": [0.4, 0.6, 0.4]
		},
		{
			"type": "dielectric",
			"name": "glass",
			"ior": 1.5
		},
		{
			"type": "diffuse light",
			"name": "light",
			"emit": [20,20,20]
		}
	],
	"surfaces": [
		{
			"type": "quad",
			"transform": [
				{
					"axis": [1, 0, 0],
					"angle": -90
				}
			],
			"size": [100,100],
			"material": "white"
		},
		{
			"type": "sphere",
			"radius": 1.0,
			"transform": {
				"translate": [0.5, 1, 0]
			},
			"material": "glass"
		},
		{
			"type": "sphere",
			"radius": 1.0,
			"transform": {
				"translate": [2.2, 1, -4]
			},
			"material": "green"
		},
		{
			"type": "sphere",
			"radius": 1.5,
			"transform": [
				{
					"translate": [-2.5, 1.5, -3.5]
				}
			],
			"material": "chrome"
		},
		{
			"type": "quad",
			"transform": [
				{
					"axis": [0, 1, 0],
					"angle": -90
				},
				{
					"axis": [0, 0, 1],
					"angle": 50
				},
				{
					"translate": [4, 3.5, 0]
				},
				{
					"axis": [0, 1, 0],
					"angle": 65
				}
			],
			"size": [1,1],
			"material": "light"
		}
	]
}
